Pong(Final)/Teste1ms/simulation/qsim/Teste1ms.msim.vcd
$comment
	File created using the following command:
		vcd file Teste1ms.msim.vcd -direction
$end
$date
	Sat Jul 07 21:42:15 2018
$end
$version
	ModelSim Version 10.1d
$end
$timescale
	1ps
$end
$scope module Tempo_umMs_vlg_vec_tst $end
$var reg 1 ! clk $end
$var wire 1 " clk_umMs $end
$var wire 1 # sampler $end
$scope module i1 $end
$var wire 1 $ gnd $end
$var wire 1 % vcc $end
$var wire 1 & unknown $end
$var tri1 1 ' devclrn $end
$var tri1 1 ( devpor $end
$var tri1 1 ) devoe $end
$var wire 1 * clk_umMs~output_o $end
$var wire 1 + clk~input_o $end
$var wire 1 , clk~inputclkctrl_outclk $end
$var wire 1 - count[0]~16_combout $end
$var wire 1 . count[0]~17 $end
$var wire 1 / count[1]~18_combout $end
$var wire 1 0 ~GND~combout $end
$var wire 1 1 count[1]~19 $end
$var wire 1 2 count[2]~20_combout $end
$var wire 1 3 count[2]~21 $end
$var wire 1 4 count[3]~22_combout $end
$var wire 1 5 count[3]~23 $end
$var wire 1 6 count[4]~24_combout $end
$var wire 1 7 LessThan0~0_combout $end
$var wire 1 8 count[4]~25 $end
$var wire 1 9 count[5]~26_combout $end
$var wire 1 : count[5]~27 $end
$var wire 1 ; count[6]~28_combout $end
$var wire 1 < count[6]~29 $end
$var wire 1 = count[7]~30_combout $end
$var wire 1 > count[7]~31 $end
$var wire 1 ? count[8]~32_combout $end
$var wire 1 @ count[8]~33 $end
$var wire 1 A count[9]~34_combout $end
$var wire 1 B count[9]~35 $end
$var wire 1 C count[10]~36_combout $end
$var wire 1 D count[10]~37 $end
$var wire 1 E count[11]~38_combout $end
$var wire 1 F count[11]~39 $end
$var wire 1 G count[12]~40_combout $end
$var wire 1 H count[12]~41 $end
$var wire 1 I count[13]~42_combout $end
$var wire 1 J count[13]~43 $end
$var wire 1 K count[14]~44_combout $end
$var wire 1 L count[14]~45 $end
$var wire 1 M count[15]~46_combout $end
$var wire 1 N LessThan0~3_combout $end
$var wire 1 O LessThan0~1_combout $end
$var wire 1 P LessThan0~2_combout $end
$var wire 1 Q LessThan0~4_combout $end
$var wire 1 R umMs~0_combout $end
$var wire 1 S umMs~q $end
$var wire 1 T count [15] $end
$var wire 1 U count [14] $end
$var wire 1 V count [13] $end
$var wire 1 W count [12] $end
$var wire 1 X count [11] $end
$var wire 1 Y count [10] $end
$var wire 1 Z count [9] $end
$var wire 1 [ count [8] $end
$var wire 1 \ count [7] $end
$var wire 1 ] count [6] $end
$var wire 1 ^ count [5] $end
$var wire 1 _ count [4] $end
$var wire 1 ` count [3] $end
$var wire 1 a count [2] $end
$var wire 1 b count [1] $end
$var wire 1 c count [0] $end
$upscope $end
$upscope $end
$enddefinitions $end
#0
$dumpvars
0!
0"
x#
0$
1%
x&
1'
1(
1)
0*
0+
0,
1-
0.
0/
00
11
02
03
04
15
06
17
08
09
1:
0;
0<
0=
1>
0?
0@
0A
1B
0C
0D
0E
1F
0G
0H
0I
1J
0K
0L
0M
1N
1O
1P
1Q
0R
0S
0c
0b
0a
0`
0_
0^
0]
0\
0[
0Z
0Y
0X
0W
0V
0U
0T
$end
#20000
1!
1+
1,
0#
1c
1.
0-
1/
#40000
0!
0+
0,
1#
#60000
1!
1+
1,
0#
1b
0c
01
0/
0.
1-
12
11
1/
02
#80000
0!
0+
0,
1#
#100000
1!
1+
1,
0#
1c
1.
0-
01
0/
12
#120000
0!
0+
0,
1#
#140000
1!
1+
1,
0#
1a
0b
0c
13
02
11
1/
0.
1-
14
03
12
0/
04
#160000
0!
0+
0,
1#
#180000
1!
1+
1,
0#
1c
1.
0-
1/
#200000
0!
0+
0,
1#
#220000
1!
1+
1,
0#
1b
0c
01
0/
0.
1-
13
02
11
1/
14
03
12
04
#240000
0!
0+
0,
1#
#260000
1!
1+
1,
0#
1c
1.
0-
01
0/
13
02
14
#280000
0!
0+
0,
1#
#300000
1!
1+
1,
0#
1`
0a
0b
0c
05
04
03
12
11
1/
0.
1-
16
15
14
02
0/
06
#320000
0!
0+
0,
1#
#340000
1!
1+
1,
0#
1c
1.
0-
1/
#360000
0!
0+
0,
1#
#380000
1!
1+
1,
0#
1b
0c
07
01
0/
0.
1-
0Q
12
11
1/
1R
02
#400000
0!
0+
0,
1#
#420000
1!
1+
1,
0#
0`
0b
1c
1S
17
04
0/
1.
0-
0R
1*
1"
1Q
1/
1R
#440000
0!
0+
0,
1#
#460000
1!
1+
1,
0#
1b
0c
01
0/
0.
1-
12
11
1/
02
#480000
0!
0+
0,
1#
#500000
1!
1+
1,
0#
1c
1.
0-
01
0/
12
#520000
0!
0+
0,
1#
#540000
1!
1+
1,
0#
1a
0b
0c
13
02
11
1/
0.
1-
14
03
12
0/
04
#560000
0!
0+
0,
1#
#580000
1!
1+
1,
0#
1c
1.
0-
1/
#600000
0!
0+
0,
1#
#620000
1!
1+
1,
0#
1b
0c
01
0/
0.
1-
13
02
11
1/
14
03
12
04
#640000
0!
0+
0,
1#
#660000
1!
1+
1,
0#
1c
1.
0-
01
0/
13
02
14
#680000
0!
0+
0,
1#
#700000
1!
1+
1,
0#
1`
0a
0b
0c
05
04
03
12
11
1/
0.
1-
16
15
14
02
0/
06
#720000
0!
0+
0,
1#
#740000
1!
1+
1,
0#
1c
1.
0-
1/
#760000
0!
0+
0,
1#
#780000
1!
1+
1,
0#
1b
0c
07
01
0/
0.
1-
0Q
12
11
1/
0R
02
#800000
0!
0+
0,
1#
#820000
1!
1+
1,
0#
0`
0b
1c
0S
17
04
0/
1.
0-
1R
0*
0"
1Q
1/
0R
#840000
0!
0+
0,
1#
#860000
1!
1+
1,
0#
1b
0c
01
0/
0.
1-
12
11
1/
02
#880000
0!
0+
0,
1#
#900000
1!
1+
1,
0#
1c
1.
0-
01
0/
12
#920000
0!
0+
0,
1#
#940000
1!
1+
1,
0#
1a
0b
0c
13
02
11
1/
0.
1-
14
03
12
0/
04
#960000
0!
0+
0,
1#
#980000
1!
1+
1,
0#
1c
1.
0-
1/
